{
    "actors": {
        "ArrowTower Attack FX Lv.1": {
            "actionActor": {
                "effect": "ArrowTower Launch Missile Lv.1",
                "launchModel": "SFX ArrowTower Launch",
                "impactModel": "FX ArrowTower Impact",
                "additionalModels": [
                    {
                        "impactModel": "SFX ArrowTower Arrow Impact"
                    }
                ]
            }
        },
        "ArrowTower Lv.1": {
            "prefix": "Tower",
            "parent": "Tile",
            "unitActor": {
                "resource": {
                    "type": "Sprite",
                    "name": "btn_unit_wildsky_arrowtower_rank01"
                },
                "modelScale": 1.1
            }
        },
        "ArrowTower Lv.2": {
            "prefix": "Tower",
            "parent": "Tile 2",
            "unitActor": {
                "resource": {
                    "type": "Sprite",
                    "name": "btn_unit_wildsky_arrowtower_rank02"
                },
                "events": [
                    {
                        "actorTerm": {
                            "actorCreate": {}
                        },
                        "actions": [
                            {
                                "playAnimation": {}
                            }
                        ]
                    }
                ],
                "modelScale": 1.1
            }
        },
        "ArrowTower Missile Lv.1": {
            "prefix": "",
            "unitActor": {
                "resource": {
                    "type": "GpuAnimation",
                    "name": "arrowtower_missile"
                },
                "modelScale": 1.8
            }
        },
        "ArrowTower Missile Lv.2": {
            "prefix": "",
            "unitActor": {
                "resource": {
                    "type": "GpuAnimation",
                    "name": "arrowtower_missile02"
                },
                "modelScale": 1.5
            }
        },
        "Bad Tile": {
            "prefix": "",
            "parent": "Base Tile",
            "unitActor": {
                "resource": {
                    "type": "Sprite",
                    "name": "pocketquest_tile_road05"
                }
            }
        },
        "Base Tile": {
            "unitActor": {
                "resource": {
                    "type": "Sprite",
                    "name": "pocketquest_tile_grass01"
                },
                "events": [
                    {
                        "actorTerm": {
                            "actorCreate": {}
                        },
                        "actions": [
                            {
                                "setSiteOperations": {
                                    "siteOperations": [
                                        "Base Tile SOp"
                                    ]
                                }
                            }
                        ]
                    }
                ],
                "modelScale": 0.52,
                "spriteOptions": {
                    "disableCameraFacing": true,
                    "centerSpriteAnchor": true
                }
            }
        },
        "Base Tile SOp": {
            "siteOperation": {
                "offset": {
                    "y": -0.09
                }
            }
        },
        "BombTower Lv.1": {
            "prefix": "Tower",
            "parent": "Tile",
            "unitActor": {
                "resource": {
                    "type": "Sprite",
                    "name": "btn_unit_wildsky_cannontower_rank01"
                },
                "modelScale": 0.9
            }
        },
        "BombTower Lv.2": {
            "prefix": "Tower",
            "parent": "Tile 2",
            "unitActor": {
                "resource": {
                    "type": "Sprite",
                    "name": "btn_unit_wildsky_cannontower_rank02"
                },
                "modelScale": 1
            }
        },
        "BombTower Missile Impact FX Lv.1": {
            "actionActor": {
                "effect": "BombTower Launch Missile Lv.1",
                "launchModel": "FX BombTower Launch",
                "impactModel": "FX Bomb Range Lv.1",
                "additionalModels": [
                    {
                        "launchModel": "SFX BombTower Launch",
                        "impactModel": "SFX BombTower Impact"
                    }
                ]
            }
        },
        "BombTower Missile Impact FX Lv.2": {
            "actionActor": {
                "effect": "BombTower Launch Missile Lv.2",
                "launchModel": "FX BombTower Launch",
                "impactModel": "FX Bomb Range Lv.2",
                "additionalModels": [
                    {
                        "impactModel": "SFX BombTower Impact"
                    }
                ]
            }
        },
        "BombTower Missile Lv.1": {
            "prefix": "Missile",
            "unitActor": {
                "resource": {
                    "type": "GpuAnimation",
                    "name": "cannontower_missile"
                },
                "modelScale": 0.5
            }
        },
        "BombTower Missile Lv.2": {
            "prefix": "",
            "unitActor": {
                "resource": {
                    "type": "GpuAnimation",
                    "name": "barrel_missile"
                },
                "modelScale": 0.7
            }
        },
        "Crater": {
            "prefix": "Tile",
            "parent": "RoadStart",
            "unitActor": {
                "resource": {
                    "type": "Sprite",
                    "name": "wilddefender_icon_close"
                },
                "events": [
                    {
                        "actorTerm": {
                            "actorDestroy": {}
                        },
                        "actions": [
                            {
                                "create": {
                                    "actor": "FX Crater Clear"
                                }
                            }
                        ]
                    }
                ],
                "modelScale": 0.6
            }
        },
        "Enemy": {
            "template": true,
            "unitActor": {
                "resource": {
                    "type": "GpuAnimation"
                },
                "preserveOnUnitRemove": true,
                "events": [
                    {
                        "actorTerm": {
                            "actorCreate": {}
                        },
                        "actions": [
                            {
                                "setSiteOperations": {
                                    "siteOperations": [
                                        "Enemy SOp"
                                    ]
                                }
                            },
                            {
                                "create": {
                                    "actor": "FX Enemy Spawn"
                                }
                            }
                        ]
                    }
                ],
                "eventMacros": [
                    "Enemy Events"
                ]
            }
        },
        "Enemy SOp": {
            "parent": "SOp AbsoluteHeight Dot01",
            "siteOperation": {
                "absoluteHeight": {
                    "height": 0.11
                }
            }
        },
        "FX ArrowTower Impact": {
            "parent": "_FX OneShot SelfRemoving",
            "modelActor": {
                "resource": {
                    "type": "ParticleAnimation",
                    "name": "vfx_arrow_tower_hit"
                }
            }
        },
        "FX Bomb Range Lv.1": {
            "modelActor": {
                "resource": {
                    "type": "ParticleAnimation",
                    "name": "vfx_tower_cannontower_impact"
                },
                "events": [
                    {
                        "actorTerm": {
                            "actorCreate": {}
                        },
                        "actions": [
                            {
                                "playAnimation": {}
                            },
                            {
                                "createTimer": {
                                    "name": "FailsafeRemove",
                                    "duration": 5
                                }
                            }
                        ]
                    },
                    {
                        "actorTerm": {
                            "animationFinish": {}
                        },
                        "actions": [
                            {
                                "destroy": {}
                            }
                        ]
                    },
                    {
                        "actorTerm": {
                            "onTimer": {
                                "name": "FailsafeRemove"
                            }
                        },
                        "actions": [
                            {
                                "destroy": {}
                            }
                        ]
                    }
                ],
                "modelScale": 0.6,
                "selectionScale": {
                    "x": 1,
                    "y": 1,
                    "z": 1
                },
                "scaleMultiplier": {
                    "x": 1,
                    "y": 1,
                    "z": 1
                }
            }
        },
        "FX Bomb Range Lv.2": {
            "modelActor": {
                "resource": {
                    "type": "ParticleAnimation",
                    "name": "vfx_tower_cannontower_concussive_impact_aoe"
                },
                "events": [
                    {
                        "actorTerm": {
                            "actorCreate": {}
                        },
                        "actions": [
                            {
                                "playAnimation": {}
                            },
                            {
                                "createTimer": {
                                    "name": "FailsafeRemove",
                                    "duration": 5
                                }
                            }
                        ]
                    },
                    {
                        "actorTerm": {
                            "animationFinish": {}
                        },
                        "actions": [
                            {
                                "destroy": {}
                            }
                        ]
                    },
                    {
                        "actorTerm": {
                            "onTimer": {
                                "name": "FailsafeRemove"
                            }
                        },
                        "actions": [
                            {
                                "destroy": {}
                            }
                        ]
                    }
                ],
                "modelScale": 0.6,
                "selectionScale": {
                    "x": 1,
                    "y": 1,
                    "z": 1
                },
                "scaleMultiplier": {
                    "x": 1,
                    "y": 1,
                    "z": 1
                }
            }
        },
        "FX BombTower Launch": {
            "parent": "_FX OneShot SelfRemoving",
            "modelActor": {
                "resource": {
                    "type": "ParticleAnimation",
                    "name": "vfx_tower_cannontower_launch"
                },
                "events": [
                    {
                        "actorTerm": {
                            "actorCreate": {}
                        },
                        "actions": [
                            {
                                "setSiteOperations": {
                                    "siteOperations": [
                                        "SOp -90x"
                                    ]
                                }
                            }
                        ]
                    }
                ]
            }
        },
        "FX Crater Clear": {
            "parent": "_FX OneShot SelfRemoving",
            "modelActor": {
                "resource": {
                    "type": "ParticleAnimation",
                    "name": "vfx_status_mark_impact"
                },
                "events": [
                    {
                        "actorTerm": {
                            "actorCreate": {}
                        },
                        "actions": [
                            {
                                "setSiteOperations": {
                                    "siteOperations": [
                                        "SOp -90x"
                                    ]
                                }
                            }
                        ]
                    }
                ]
            }
        },
        "FX Enemy Spawn": {
            "parent": "_FX OneShot SelfRemoving",
            "modelActor": {
                "resource": {
                    "type": "ParticleAnimation",
                    "name": "vfx_darksummons_doomguard_doom"
                },
                "events": [
                    {
                        "actorTerm": {
                            "actorCreate": {}
                        },
                        "actions": [
                            {
                                "setSiteOperations": {
                                    "siteOperations": [
                                        "SOp -90x"
                                    ]
                                }
                            }
                        ]
                    }
                ]
            }
        },
        "FX IceTower Attack": {
            "modelActor": {
                "resource": {
                    "type": "BeamAnimation",
                    "name": "beam_darkspire_deathbeam_c"
                },
                "events": [
                    {
                        "actorTerm": {
                            "actorCreate": {}
                        },
                        "actions": [
                            {
                                "playAnimation": {}
                            },
                            {
                                "createTimer": {
                                    "name": "FailsafeRemove",
                                    "duration": 5
                                }
                            }
                        ]
                    },
                    {
                        "actorTerm": {
                            "animationFinish": {}
                        },
                        "actions": [
                            {
                                "destroy": {}
                            }
                        ]
                    },
                    {
                        "actorTerm": {
                            "onTimer": {
                                "name": "FailsafeRemove"
                            }
                        },
                        "actions": [
                            {
                                "destroy": {}
                            }
                        ]
                    }
                ],
                "selectionScale": {
                    "x": 1,
                    "y": 1,
                    "z": 1
                },
                "scaleMultiplier": {
                    "x": 1,
                    "y": 1,
                    "z": 1
                }
            }
        },
        "FX Tower Destroyed": {
            "parent": "_FX OneShot SelfRemoving",
            "modelActor": {
                "resource": {
                    "type": "ParticleAnimation",
                    "name": "vfx_tower_flamecannon_heatseekers_impact"
                },
                "events": [
                    {
                        "actorTerm": {
                            "actorCreate": {}
                        },
                        "actions": [
                            {
                                "setSiteOperations": {
                                    "siteOperations": [
                                        "SOp -90x"
                                    ]
                                }
                            }
                        ]
                    }
                ]
            }
        },
        "FX Tower Merge": {
            "parent": "_FX OneShot SelfRemoving",
            "modelActor": {
                "resource": {
                    "type": "ParticleAnimation",
                    "name": "vfx_tower_lighthouse_troop_spawn"
                },
                "events": [
                    {
                        "actorTerm": {
                            "actorCreate": {}
                        },
                        "actions": [
                            {
                                "setSiteOperations": {
                                    "siteOperations": [
                                        "SOp -90x"
                                    ]
                                }
                            },
                            {
                                "playSound": {
                                    "soundName": "tower_stoneguard_troop_weapon_impact",
                                    "volume": 0.3
                                }
                            }
                        ]
                    }
                ],
                "modelScale": 1.5
            }
        },
        "FX Wizard Weapon Impact": {
            "parent": "_FX OneShot SelfRemoving",
            "modelActor": {
                "resource": {
                    "type": "ParticleAnimation",
                    "name": "vfx_tower_potiondealer_impact"
                },
                "modelScale": 5
            }
        },
        "Forest Lv.1": {
            "prefix": "Tile",
            "parent": "Tile",
            "unitActor": {
                "resource": {
                    "type": "Sprite",
                    "name": "pocketquest_proptile_forest1"
                }
            }
        },
        "Forest Lv.2": {
            "prefix": "Tile",
            "parent": "Tile 2",
            "unitActor": {
                "resource": {
                    "type": "Sprite",
                    "name": "pocketquest_proptile_forest2"
                }
            }
        },
        "Goblin": {
            "prefix": "Enemy",
            "parent": "Enemy",
            "unitActor": {
                "resource": {
                    "type": "GpuAnimation",
                    "name": "goblin_green"
                },
                "events": [
                    {
                        "actorTerm": {
                            "unitWeaponStart": {}
                        },
                        "actions": [
                            {
                                "playAnimation": {}
                            }
                        ]
                    }
                ],
                "walkAnimationSpeed": 1.5,
                "modelScale": 2
            }
        },
        "Goblin Attack FX": {
            "actionActor": {
                "effect": "Goblin Damage",
                "impactModel": "SFX Goblin Attack Impact"
            }
        },
        "IceTower Attack FX Lv.1": {
            "actionActor": {
                "effect": "IceTower Weapon Area Search Lv.1",
                "launchModel": "IceTower Range FX Lv.1",
                "additionalModels": [
                    {
                        "launchModel": "SFX IceTower Attack"
                    }
                ]
            }
        },
        "IceTower Attack FX Lv.2": {
            "actionActor": {
                "effect": "IceTower Weapon Area Search Lv.2",
                "launchModel": "IceTower Range FX Lv.2",
                "impactModel": "SFX IceTower Attack",
                "additionalModels": [
                    {
                        "launchModel": "SFX IceTower Attack"
                    }
                ]
            }
        },
        "IceTower Lv.1": {
            "prefix": "Tower",
            "parent": "Tile",
            "unitActor": {
                "resource": {
                    "name": "btn_unit_wildsky_icemantower_rank1"
                },
                "modelScale": 0.95
            }
        },
        "IceTower Lv.2": {
            "prefix": "Tower",
            "parent": "Tile 2",
            "unitActor": {
                "resource": {
                    "name": "btn_unit_wildsky_icemantower_rank2"
                },
                "modelScale": 0.95
            }
        },
        "IceTower Range FX Lv.1": {
            "parent": "_FX OneShot SelfRemoving",
            "modelActor": {
                "resource": {
                    "type": "ParticleAnimation",
                    "name": "vfx_icemage_frostnova_impact_aoe"
                },
                "events": [
                    {
                        "actorTerm": {
                            "actorCreate": {}
                        },
                        "actions": [
                            {
                                "setSiteOperations": {
                                    "siteOperations": [
                                        "SOp -90x"
                                    ]
                                }
                            }
                        ]
                    }
                ],
                "modelScale": 3
            }
        },
        "IceTower Range FX Lv.2": {
            "modelActor": {
                "resource": {
                    "type": "ParticleAnimation",
                    "name": "vfx_boss_water_chill_aura"
                },
                "events": [
                    {
                        "actorTerm": {
                            "actorCreate": {}
                        },
                        "actions": [
                            {
                                "playAnimation": {}
                            },
                            {
                                "createTimer": {
                                    "name": "FailsafeRemove",
                                    "duration": 5
                                }
                            }
                        ]
                    },
                    {
                        "actorTerm": {
                            "animationFinish": {}
                        },
                        "actions": [
                            {
                                "destroy": {}
                            }
                        ]
                    },
                    {
                        "actorTerm": {
                            "onTimer": {
                                "name": "FailsafeRemove"
                            }
                        },
                        "actions": [
                            {
                                "destroy": {}
                            }
                        ]
                    },
                    {
                        "actorTerm": {
                            "actorCreate": {}
                        },
                        "actions": [
                            {
                                "setSiteOperations": {
                                    "siteOperations": [
                                        "SOp -90x"
                                    ]
                                }
                            }
                        ]
                    }
                ],
                "modelScale": 5.5,
                "selectionScale": {
                    "x": 1,
                    "y": 1,
                    "z": 1
                },
                "scaleMultiplier": {
                    "x": 1,
                    "y": 1,
                    "z": 1
                }
            }
        },
        "Road": {
            "prefix": "",
            "template": true,
            "parent": "Base Tile",
            "unitActor": {
                "resource": {
                    "type": "GpuAnimation"
                },
                "events": [
                    {
                        "actorTerm": {
                            "actorCreate": {}
                        },
                        "actions": [
                            {
                                "setSiteOperations": {
                                    "siteOperations": [
                                        "SOp AbsoluteHeight Dot1",
                                        "SOp 90x"
                                    ],
                                    "append": true
                                }
                            }
                        ]
                    }
                ]
            }
        },
        "RoadBottomRight": {
            "prefix": "Tile",
            "unitActor": {
                "resource": {
                    "type": "Sprite",
                    "name": "pocketquest_tile_road03"
                },
                "events": [
                    {
                        "actorTerm": {
                            "actorCreate": {}
                        },
                        "actions": [
                            {
                                "setSiteOperations": {
                                    "siteOperations": [
                                        "Base Tile SOp"
                                    ]
                                }
                            }
                        ]
                    },
                    {
                        "actorTerm": {
                            "actorCreate": {}
                        },
                        "actions": [
                            {
                                "setSiteOperations": {
                                    "siteOperations": [
                                        "SOp AbsoluteHeight Dot1",
                                        "SOp 90x"
                                    ],
                                    "append": true
                                }
                            }
                        ]
                    },
                    {
                        "actorTerm": {
                            "actorCreate": {}
                        },
                        "actions": [
                            {
                                "playAnimation": {}
                            }
                        ]
                    }
                ],
                "modelScale": 0.52,
                "spriteOptions": {
                    "disableCameraFacing": true,
                    "centerSpriteAnchor": true
                }
            }
        },
        "RoadEnd": {
            "prefix": "Tile",
            "parent": "RoadStart",
            "unitActor": {
                "resource": {
                    "type": "Sprite",
                    "name": "pocketquest_proptile_camp_bonfire_level10"
                },
                "eventMacros": [
                    "Tile Posioned"
                ],
                "modelScale": 0.3
            }
        },
        "RoadHorizontal": {
            "prefix": "Tile",
            "unitActor": {
                "resource": {
                    "type": "Sprite",
                    "name": "pocketquest_tile_road04"
                },
                "events": [
                    {
                        "actorTerm": {
                            "actorCreate": {}
                        },
                        "actions": [
                            {
                                "setSiteOperations": {
                                    "siteOperations": [
                                        "Base Tile SOp"
                                    ]
                                }
                            }
                        ]
                    },
                    {
                        "actorTerm": {
                            "actorCreate": {}
                        },
                        "actions": [
                            {
                                "setSiteOperations": {
                                    "siteOperations": [
                                        "SOp AbsoluteHeight Dot1",
                                        "SOp 90x"
                                    ],
                                    "append": true
                                }
                            }
                        ]
                    },
                    {
                        "actorTerm": {
                            "actorCreate": {}
                        },
                        "actions": [
                            {
                                "playAnimation": {}
                            }
                        ]
                    }
                ],
                "modelScale": 0.52,
                "spriteOptions": {
                    "disableCameraFacing": true,
                    "centerSpriteAnchor": true
                }
            }
        },
        "RoadStart": {
            "prefix": "Tile",
            "unitActor": {
                "resource": {
                    "type": "Sprite",
                    "name": "general_icon_coin_skull"
                },
                "events": [
                    {
                        "actorTerm": {
                            "actorCreate": {}
                        },
                        "actions": [
                            {
                                "setSiteOperations": {
                                    "siteOperations": [
                                        "SOp 90x",
                                        "SOp AbsoluteHeight Dot1"
                                    ]
                                }
                            },
                            {
                                "create": {
                                    "actor": "Bad Tile"
                                }
                            }
                        ]
                    }
                ],
                "modelScale": 0.5,
                "spriteOptions": {
                    "disableCameraFacing": true,
                    "centerSpriteAnchor": true
                }
            }
        },
        "RoadUpLeft": {
            "prefix": "Tile",
            "unitActor": {
                "resource": {
                    "type": "Sprite",
                    "name": "pocketquest_tile_road01"
                },
                "events": [
                    {
                        "actorTerm": {
                            "actorCreate": {}
                        },
                        "actions": [
                            {
                                "setSiteOperations": {
                                    "siteOperations": [
                                        "Base Tile SOp"
                                    ]
                                }
                            }
                        ]
                    },
                    {
                        "actorTerm": {
                            "actorCreate": {}
                        },
                        "actions": [
                            {
                                "setSiteOperations": {
                                    "siteOperations": [
                                        "SOp AbsoluteHeight Dot1",
                                        "SOp 90x"
                                    ],
                                    "append": true
                                }
                            }
                        ]
                    },
                    {
                        "actorTerm": {
                            "actorCreate": {}
                        },
                        "actions": [
                            {
                                "playAnimation": {}
                            }
                        ]
                    }
                ],
                "modelScale": 0.52,
                "spriteOptions": {
                    "disableCameraFacing": true,
                    "centerSpriteAnchor": true
                }
            }
        },
        "RoadVertical": {
            "prefix": "Tile",
            "parent": "Road",
            "unitActor": {
                "resource": {
                    "type": "Sprite",
                    "name": "pocketquest_tile_road02"
                },
                "events": [
                    {
                        "actorTerm": {
                            "actorCreate": {}
                        },
                        "actions": [
                            {
                                "playAnimation": {}
                            }
                        ]
                    }
                ]
            }
        },
        "Rock Lv.1": {
            "prefix": "Tile",
            "parent": "Tile",
            "unitActor": {
                "resource": {
                    "type": "Sprite",
                    "name": "pocketquest_proptile_stone1"
                }
            }
        },
        "Rock Lv.2": {
            "prefix": "Tile",
            "parent": "Tile 2",
            "unitActor": {
                "resource": {
                    "type": "Sprite",
                    "name": "pocketquest_proptile_stone2"
                }
            }
        },
        "Rune Lv.1": {
            "prefix": "Tile",
            "parent": "Tile",
            "unitActor": {
                "resource": {
                    "type": "Sprite",
                    "name": "pocketquest_proptile_crystal1"
                }
            }
        },
        "Rune Lv.2": {
            "prefix": "Tile",
            "parent": "Tile 2",
            "unitActor": {
                "resource": {
                    "type": "Sprite",
                    "name": "pocketquest_proptile_crystal2"
                }
            }
        },
        "SFX ArrowTower Arrow Impact": {
            "parent": "_SFX OneShot SelfRemoving",
            "modelActor": {
                "resource": {
                    "type": "Sound",
                    "name": "arrow_hit_v1"
                }
            }
        },
        "SFX ArrowTower Launch": {
            "parent": "_SFX OneShot SelfRemoving",
            "modelActor": {
                "resource": {
                    "type": "Sound",
                    "name": "Arrow_launch"
                }
            }
        },
        "SFX BombTower Impact": {
            "parent": "_SFX OneShot SelfRemoving",
            "modelActor": {
                "resource": {
                    "type": "Sound",
                    "name": "cannon_fire_nova"
                }
            }
        },
        "SFX BombTower Launch": {
            "parent": "_SFX OneShot SelfRemoving",
            "modelActor": {
                "resource": {
                    "type": "Sound",
                    "name": "cannon_ball_launch_v3"
                }
            }
        },
        "SFX Goblin Attack Impact": {
            "parent": "_SFX OneShot SelfRemoving",
            "modelActor": {
                "resource": {
                    "type": "Sound",
                    "name": "wood_armor_hit_v1"
                }
            }
        },
        "SFX IceTower Attack": {
            "parent": "_SFX OneShot SelfRemoving",
            "modelActor": {
                "resource": {
                    "type": "Sound",
                    "name": "hero_icemage_icearmor_launch"
                }
            }
        },
        "SFX Match Success": {
            "modelActor": {
                "resource": {
                    "type": "Sound",
                    "name": ""
                },
                "events": [
                    {
                        "actorTerm": {
                            "actorCreate": {}
                        },
                        "actions": [
                            {
                                "playAnimation": {}
                            }
                        ]
                    },
                    {
                        "actorTerm": {
                            "animationFinish": {}
                        },
                        "actions": [
                            {
                                "destroy": {}
                            }
                        ]
                    }
                ],
                "selectionScale": {
                    "x": 1,
                    "y": 1,
                    "z": 1
                },
                "scaleMultiplier": {
                    "x": 1,
                    "y": 1,
                    "z": 1
                }
            }
        },
        "SFX Wizard Attack Impact": {
            "parent": "_SFX OneShot SelfRemoving",
            "modelActor": {
                "resource": {
                    "type": "Sound",
                    "name": "tower_potiondealer_weapon_impact"
                }
            }
        },
        "SFX Wizard Attack Launch": {
            "parent": "_SFX OneShot SelfRemoving",
            "modelActor": {
                "resource": {
                    "type": "Sound",
                    "name": "tower_potiondealer_weapon_launch"
                }
            }
        },
        "SOp -90x": {
            "parent": "SOp 90x",
            "siteOperation": {
                "rotate": {
                    "x": -90
                }
            }
        },
        "SOp AbsoluteHeight Dot1": {
            "parent": "SOp AbsoluteHeight Dot01",
            "siteOperation": {
                "absoluteHeight": {
                    "height": 0.1
                }
            }
        },
        "Tile": {
            "template": true,
            "unitActor": {
                "resource": {
                    "type": "Sprite",
                    "name": ""
                },
                "preserveOnUnitRemove": true,
                "events": [
                    {
                        "actorTerm": {
                            "actorCreate": {}
                        },
                        "actions": [
                            {
                                "setSiteOperations": {
                                    "siteOperations": [
                                        "SOp 90x",
                                        "SOp AbsoluteHeight Dot1"
                                    ]
                                }
                            },
                            {
                                "create": {
                                    "actor": "Base Tile"
                                }
                            }
                        ]
                    },
                    {
                        "actorTerm": {
                            "unitDeath": {}
                        },
                        "actions": [
                            {
                                "create": {
                                    "actor": "FX Tower Destroyed"
                                }
                            },
                            {
                                "createTimer": {
                                    "name": "death",
                                    "duration": 1
                                }
                            }
                        ]
                    },
                    {
                        "actorTerm": {
                            "unitRemove": {}
                        },
                        "actions": [
                            {
                                "createTimer": {
                                    "name": "death"
                                }
                            }
                        ]
                    },
                    {
                        "actorTerm": {
                            "onTimer": {
                                "name": "death"
                            }
                        },
                        "actions": [
                            {
                                "destroy": {}
                            }
                        ]
                    }
                ],
                "eventMacros": [
                    "Tile Selectable",
                    "Tile Posioned"
                ],
                "modelScale": 0.45,
                "selectionBonusRadius": 0.45,
                "selectionShape": 1,
                "selectionScale": {
                    "x": 1,
                    "y": 1,
                    "z": 1
                },
                "hideShadow": true,
                "spriteOptions": {
                    "disableCameraFacing": true,
                    "centerSpriteAnchor": true
                }
            }
        },
        "Tile 2": {
            "template": true,
            "unitActor": {
                "resource": {
                    "type": "Sprite",
                    "name": ""
                },
                "events": [
                    {
                        "actorTerm": {
                            "actorCreate": {}
                        },
                        "actions": [
                            {
                                "setSiteOperations": {
                                    "siteOperations": [
                                        "SOp 90x",
                                        "SOp AbsoluteHeight Dot1"
                                    ]
                                }
                            },
                            {
                                "create": {
                                    "actor": "Base Tile"
                                }
                            }
                        ]
                    },
                    {
                        "actorTerm": {
                            "unitDeath": {}
                        },
                        "actions": [
                            {
                                "create": {
                                    "actor": "FX Tower Destroyed"
                                }
                            },
                            {
                                "createTimer": {
                                    "name": "death",
                                    "duration": 1
                                }
                            }
                        ]
                    },
                    {
                        "actorTerm": {
                            "unitRemove": {}
                        },
                        "actions": [
                            {
                                "createTimer": {
                                    "name": "death"
                                }
                            }
                        ]
                    },
                    {
                        "actorTerm": {
                            "onTimer": {
                                "name": "death"
                            }
                        },
                        "actions": [
                            {
                                "destroy": {}
                            }
                        ]
                    },
                    {
                        "actorTerm": {
                            "behaviorOn": {
                                "behavior": "Merge"
                            }
                        },
                        "actions": [
                            {
                                "create": {
                                    "actor": "FX Tower Merge"
                                }
                            },
                            {
                                "playSound": {
                                    "soundName": "tower_lighthouse_heal",
                                    "volume": 1.2
                                }
                            }
                        ]
                    }
                ],
                "eventMacros": [
                    "Tile Selectable",
                    "Tile Posioned"
                ],
                "modelScale": 0.45,
                "selectionBonusRadius": 0.45,
                "selectionShape": 1,
                "selectionScale": {
                    "x": 1,
                    "y": 1,
                    "z": 1
                },
                "hideShadow": true,
                "spriteOptions": {
                    "disableCameraFacing": true,
                    "centerSpriteAnchor": true
                }
            }
        },
        "Wall": {
            "prefix": "",
            "unitActor": {
                "resource": {
                    "type": "PropModel",
                    "name": "factoryworld_castleset_wall00"
                },
                "events": [
                    {
                        "actorTerm": {
                            "actorCreate": {}
                        },
                        "actions": [
                            {
                                "setSiteOperations": {
                                    "siteOperations": [
                                        "Wall SOp"
                                    ]
                                }
                            }
                        ]
                    }
                ]
            }
        },
        "Wall SOp": {
            "siteOperation": {
                "offset": {
                    "z": 0.3,
                    "orientation": 1
                }
            }
        },
        "Wizard": {
            "prefix": "Enemy",
            "parent": "Enemy",
            "unitActor": {
                "resource": {
                    "type": "GpuAnimation",
                    "name": "potiondealer_caster_rank01"
                },
                "events": [
                    {
                        "actorTerm": {
                            "unitWeaponStart": {
                                "weapon": "Wizard Attack"
                            }
                        },
                        "actions": [
                            {
                                "playAnimation": {}
                            }
                        ]
                    }
                ],
                "modelScale": 1.5
            }
        },
        "Wizard Attack FX": {
            "actionActor": {
                "effect": "Wizard Launch Missile",
                "impactModel": "FX Wizard Weapon Impact",
                "additionalModels": [
                    {
                        "launchModel": "SFX Wizard Attack Launch",
                        "impactModel": "SFX Wizard Attack Impact"
                    }
                ]
            }
        },
        "Wizard Missile": {
            "prefix": "Missile",
            "unitActor": {
                "resource": {
                    "type": "GpuAnimation",
                    "name": "potiondealer_missile"
                },
                "modelScale": 2
            }
        },
        "_CMissile": {
            "unitActor": {
                "resource": {
                    "type": "GpuAnimation"
                }
            }
        },
        "_StandardHelper": {
            "unitActor": {
                "resource": {
                    "type": "GpuAnimation"
                }
            }
        }
    },
    "actorEventMacros": {
        "Enemy Events": {
            "events": [
                {
                    "actorTerm": {
                        "actorCreate": {}
                    },
                    "actions": [
                        {
                            "create": {
                                "actor": "FX Enemy Spawn"
                            }
                        }
                    ]
                },
                {
                    "actorTerm": {
                        "behaviorOn": {
                            "behavior": "IceTower Slow Behavior Lv.1"
                        }
                    },
                    "actions": [
                        {
                            "applyMeshEffect": {
                                "effect": "Chill"
                            }
                        }
                    ]
                },
                {
                    "actorTerm": {
                        "behaviorOn": {
                            "behavior": "IceTower Slow Behavior Lv.2"
                        }
                    },
                    "actions": [
                        {
                            "applyMeshEffect": {
                                "effect": "Frozen"
                            }
                        }
                    ]
                },
                {
                    "actorTerm": {
                        "behaviorOff": {
                            "behavior": "IceTower Slow Behavior Lv.1"
                        }
                    },
                    "actions": [
                        {
                            "removeMeshEffect": {
                                "effect": "Chill"
                            }
                        }
                    ]
                },
                {
                    "actorTerm": {
                        "behaviorOff": {
                            "behavior": "IceTower Slow Behavior Lv.2"
                        }
                    },
                    "actions": [
                        {
                            "removeMeshEffect": {
                                "effect": "Frozen"
                            }
                        }
                    ]
                },
                {
                    "actorTerm": {
                        "unitDeath": {}
                    },
                    "actions": [
                        {
                            "playAnimation": {
                                "clipId": 1
                            }
                        },
                        {
                            "createTimer": {
                                "name": "death",
                                "duration": 1
                            }
                        }
                    ]
                },
                {
                    "actorTerm": {
                        "onTimer": {
                            "name": "death"
                        }
                    },
                    "actions": [
                        {
                            "destroy": {}
                        }
                    ]
                }
            ]
        },
        "Tile Posioned": {
            "events": [
                {
                    "actorTerm": {
                        "behaviorOn": {
                            "behavior": "Wizard Weapon Poison"
                        }
                    },
                    "actions": [
                        {
                            "setTintColor": {
                                "color": {
                                    "r": 212,
                                    "g": 11,
                                    "b": 188
                                }
                            }
                        }
                    ]
                },
                {
                    "actorTerm": {
                        "behaviorOff": {
                            "behavior": "Wizard Weapon Poison"
                        }
                    },
                    "actions": [
                        {
                            "clearTintColor": {}
                        }
                    ]
                }
            ]
        },
        "Tile Selectable": {
            "events": [
                {
                    "actorTerm": {
                        "selectionOn": {}
                    },
                    "actions": [
                        {
                            "playSound": {
                                "soundName": "turret_bullet_hit_v1"
                            }
                        },
                        {
                            "setTintColor": {
                                "color": {
                                    "r": 238,
                                    "g": 203,
                                    "b": 166
                                }
                            }
                        }
                    ]
                },
                {
                    "actorTerm": {
                        "selectionOff": {}
                    },
                    "actions": [
                        {
                            "clearTintColor": {}
                        }
                    ]
                }
            ]
        }
    }
}